#m/z intensity
233.11188 14.400403
234.56749 4.4517717
236.23021 1.8002754
237.24225 2.6919503
238.18748 3.3086176
242.88141 4.0070724
244.06467 9.472869
245.39372 9.179539
246.1633 9.243626
249.02481 2.3588984
251.02534 26.73921
251.89308 8.457618
253.20157 1.7945342
256.05585 3.4323256
256.83585 7.048923
258.2741 4.5191855
260.28098 5.0078826
261.30255 3.39577
261.95215 2.7760859
266.2851 6.796959
271.14523 1.8470871
274.3665 9.757248
275.20905 7.0699043
277.28918 3.327631
278.3712 14.613612
279.09973 54.62076
281.20294 8.964163
282.208 5.0295258
283.17236 2.710002
284.37543 22.660316
285.28986 3.6176805
289.37103 4.046252
290.30835 71.63468
291.20108 7.478136
292.06363 13.78534
292.83383 19.00497
294.25687 27.851446
295.47333 6.8653784
297.35922 1.950714
298.20038 2.0932558
299.98578 3.6818733
301.73853 95.96508
302.50958 14.24409
303.2622 5.056508
306.34613 2.6952507
307.08923 1.7896081
308.23822 6.394986
309.17426 4.3113413
310.04395 7.340965
310.961 8.536309
312.21097 4.2082267
313.02972 3.0683615
314.17807 3.8015776
314.97513 2.5275784
316.06702 3.3209124
317.28796 2.6356242
318.1717 6.958088
320.24344 10.353666
322.26266 8.098389
324.32315 7.550314
326.1098 2.3192458
327.42563 15.030738
329.32526 3.1554425
330.83383 4.018593
331.8967 3.9178135
332.5728 6.628538
333.93604 2.3585587
335.19186 21.082102
336.09326 4.3121834
339.1243 1.949165
340.16956 8.177223
341.3578 2.316629
342.1764 3.995466
343.06836 3.5257883
344.12463 2.4823859
346.14337 6.067041
347.39923 4.160885
348.63666 6.8569307
349.37616 15.726218
350.3729 51.14985
351.2839 7.9567356
352.43433 2.350555
353.21103 17.204151
354.37952 11.698889
355.52084 6.391239
357.46097 6.2203364
358.36496 5.718701
359.14914 20.515873
361.28723 7.7320995
364.98776 8.793809
365.93152 7.5513926
367.31906 3.394739
369.23334 5.5267663
370.1582 20.009586
371.32828 14.467156
374.36838 6.775429
375.21155 7.3800473
377.17896 41.92301
378.18884 2.2685728
378.9087 59.090714
380.29117 15.0600195
381.24146 8.866461
383.3548 2.0083878
385.22656 4.775868
387.06317 31.039478
388.22156 13.0070915
389.46307 1.800843
390.47687 5.228335
391.34686 2.521168
392.6272 11.830996
393.31464 34.88476
394.47742 1.8301688
395.2758 5.671874
397.08966 9.026787
398.1847 33.67904
399.48422 15.947447
400.27466 4.182976
401.48312 4.8184595
402.19214 8.310436
403.2422 14.7336855
404.35864 46.333393
405.41345 23.211676
406.12283 14.321716
407.32635 3.8075905
408.18958 97.805595
409.0188 10.400312
410.05792 4.692864
411.17297 2.5734196
415.33566 9.297363
416.16174 8.365584
417.0578 5.571972
418.33124 9.843123
419.12085 5.33714
420.6394 3.954215
421.38895 6.230465
422.60077 3.2736242
423.3679 5.0076275
424.33588 7.371043
425.20346 8.91898
428.2513 15.533359
429.2406 13.485156
431.32593 6.8821
432.29633 7.3396435
433.2383 21.028248
434.30957 33.922886
435.21814 12.157322
436.259 19.556547
437.32556 3.0593965
438.7747 2.6713412
440.06073 4.1571527
442.11792 10.239509
443.19568 7.9670153
444.2356 21.158016
445.00098 5.000431
446.1544 10.90278
447.18362 11.642213
448.32935 5.38706
449.34372 34.40216
450.0338 39.88641
451.09647 1.7309052
452.38605 154.87215
453.92868 14.706476
455.48358 5.253648
456.24042 23.313139
457.06482 2.4622734
458.20245 11.560006
459.28403 7.8591404
461.21606 216.87129
461.9735 79.93921
463.2049 30.978855
464.23752 35.050762
466.81183 7.643111
467.65186 5.677391
468.33685 8.102753
470.02454 17.14049
471.35294 23.193838
472.09082 8.258256
473.4109 36.92931
474.4197 28.720184
475.29135 14.090573
476.25708 12.021076
477.6783 21.12196
478.42984 13.448209
479.09982 1.7314658
480.59058 10.2027235
481.3705 13.397892
482.6002 1.8521948
483.50204 17.268148
484.41006 42.204193
485.3087 18.114769
486.10132 6.827653
487.09143 4.2504473
488.94873 23.41444
489.87637 18.40998
491.41226 5.318546
492.2212 5.0027456
494.261 27.045805
495.04083 19.455975
496.21066 3.9801922
497.0196 4.3883743
498.22824 9.403898
499.27527 25.889154
501.3103 2151.3555
502.2869 432.39407
503.38104 54.051556
504.36337 28.258217
505.5244 14.140106
506.45685 14.082319
508.254 14.160032
509.83438 35.298676
510.59302 10.367986
511.96173 26.822456
512.97766 25.271181
514.11774 12.57835
515.41785 17.37698
516.37976 24.408192
518.67224 63.999737
519.49097 31.62489
520.2483 25.857662
522.2278 158.2778
523.28625 22.258978
524.09265 22.902557
525.03064 5.0770035
526.8515 5.79747
527.51294 5.2079597
528.21265 16.146214
529.5289 51.284973
530.3495 39.94176
531.3638 32.915157
532.3931 30.237469
533.3546 88.61501
534.19476 13.926725
535.3003 12.016988
536.0283 6.3783426
537.40265 17.261631
538.4729 121.15538
539.28235 11.095579
540.12866 27.493883
541.2373 10.097274
543.33234 18.15118
544.3146 23.036049
545.44946 31.15461
546.3019 19.671112
547.2289 156.05498
547.97955 103.08443
549.22986 101.83731
549.9699 61.096287
551.1083 77.7041
552.18896 16.259045
553.2261 17.724918
553.83954 5.9994183
555.4147 7.6496043
557.13885 9.331354
558.4578 137.02629
559.3187 71.13514
560.0964 9.286097
561.25275 77.406044
562.2445 34.99626
563.08325 21.758268
564.18677 18.134315
565.3718 9.149883
566.806 316.7065
567.5809 197.34868
568.4708 2.2586882
569.2717 16.30268
570.4752 11.372798
571.28516 12.163052
574.1337 14.444363
574.777 12.761503
575.8193 883.464
576.54785 296.18106
577.37726 42.607372
578.6543 53.006393
579.3886 76.57778
580.26135 41.89239
581.1161 6.31295
582.2483 10.795743
583.6754 37.480354
584.61816 23.243757
585.84595 21.019321
586.961 40.72359
588.1477 29.907131
589.1786 18.500605
590.9463 9.478884
592.7379 19.660358
593.5644 24.464985
594.6555 5.7234187
595.4324 7.2433233
596.4962 5.4977818
597.67444 21.332294
598.59424 20.038256
599.20355 8.925733
600.4894 28.396229
602.3197 1360.8052
603.30426 352.646
604.2269 30.08812
605.3424 70.8347
606.60077 29.683073
607.4343 40.57583
608.2583 18.610651
609.2726 9.676829
610.254 23.884077
611.32007 21.296627
612.59485 37.312782
613.4931 30.36559
614.35645 27.644085
615.383 121.47011
616.4081 6.482136
617.6621 33.15692
618.2903 28.968664
620.5204 35.083363
621.86395 13.188905
623.1809 48.129826
624.0586 6.691342
625.16077 2.7010448
626.0191 24.822882
626.978 43.361977
628.2848 15.049782
629.6994 13.994105
630.6825 33.336372
631.3984 45.187813
632.2678 39.64869
633.17786 105.04114
634.4353 16.32883
635.2029 57.534946
635.8544 43.428593
636.5917 2.35703
637.3966 2.7077823
638.64185 33.80766
639.4374 18.689537
640.42523 109.96805
641.31464 120.24832
642.12573 16.477468
643.4612 16.51897
644.40186 9.423997
645.9313 24.569448
647.438 23.146078
648.3699 378.31772
649.13904 402.0829
649.7678 141.15167
650.4938 145.01974
651.3037 154.71858
652.1836 23.475864
653.29645 7.544405
654.4407 10.871109
656.00433 35.239006
657.32904 1525.965
658.00415 1156.8191
659.19824 361.3998
660.244 100.01511
661.4381 43.692158
662.39465 22.297848
663.51624 43.604134
664.23236 12.266451
665.00574 24.809507
666.2461 30.458809
667.30066 18.293938
668.2302 11.629204
669.0928 115.556564
670.2114 38.868477
671.53784 34.799023
672.57965 22.35617
673.4154 12.4266815
675.20386 383.24954
676.1669 982.03723
677.3051 430.39682
678.35815 92.733635
679.6758 25.122894
680.3468 34.08889
681.08923 25.485886
682.4264 10.5923395
683.996 385.1622
685.15625 38.716843
686.0454 18.327782
686.9255 22.299639
687.99866 11.271185
689.54803 17.193027
690.5948 9.588671
691.2906 3.7109659
693.1633 3398.1304
694.175 1012.55634
695.1725 98.220665
695.8595 17.004908
697.19006 41.81225
698.2696 103.61541
699.3439 183.61409
700.40845 49.0917
701.4221 46.661934
702.615 57.634636
703.4781 44.55398
704.646 31.012045
706.2556 84.64096
707.24854 22.10022
708.3192 6.326843
709.01514 7.6730313
709.9431 33.79124
710.9884 17.253277
712.1173 181.33841
713.34717 71.65154
714.3152 14.091997
715.781 32.723495
717.35535 721.0916
718.37054 277.89236
719.4907 53.00332
720.70874 55.484867
721.6633 36.80899
723.0254 24.335447
723.9912 10.392606
725.2457 32.540215
726.3269 14.904062
726.9358 30.830086
727.562 726.66315
728.58826 54.674175
729.9557 43.453506
731.1249 23.08824
731.9734 7.1794853
733.1105 30.3871
733.78406 28.883186
734.4094 81.58041
736.5642 3158.5996
737.44946 334.40753
738.4418 47.06211
740.10657 396.8755
740.99475 45.021187
742.04956 31.956266
743.3053 73.52258
743.96497 84.75756
744.64453 35.58031
745.6173 42.79717
746.36487 179.91092
747.22 22.390213
748.41125 35.03797
749.4573 45.106308
750.0934 10.952477
751.05664 51.147446
751.9885 34.013355
753.46716 33.354088
754.59314 121.49219
755.3441 123.06333
756.35425 482.39038
757.3845 195.85901
758.1421 11.626338
759.1448 75.4233
760.16345 43.43094
761.2068 19.842598
762.09314 35.760677
763.5648 71.07361
764.53845 116.07628
765.5248 23.496117
766.28125 37.245525
767.29065 37.039116
768.2311 46.43445
769.1277 19.008734
770.1791 15.652512
771.1085 10.966314
772.06287 97.2741
773.26294 70.538155
774.396 2097.306
775.44336 550.1239
776.3904 59.333748
777.63965 24.866968
778.78796 46.86561
779.5625 41.053844
780.2411 22.76519
781.15173 49.50946
782.5138 40.70601
783.4579 53.03379
784.3889 54.334778
785.34607 87.45825
786.5094 38.13155
787.70374 63.211967
788.83716 93.59718
790.14124 164.85243
791.1659 63.872295
792.1858 27.987978
793.15295 56.291557
794.3081 55.79325
795.0929 49.917694
796.21106 101.158714
797.47327 69.94557
798.4791 359.2453
799.26086 463.6997
800.2346 64.979935
801.5802 44.129333
803.2411 138.70743
804.2362 332.1488
804.8927 1825.6624
806.6642 117.09067
807.6432 57.02044
808.369 28.476645
809.67676 4.6256943
811.29126 2.0621393
816.5261 4.3738365
820.4109 2.127331
821.5647 2.61847
823.54956 33.82389
825.4241 7.2002063
826.3219 2.8723323
828.64014 140.63689
829.4595 74.259926
830.5432 10.359791
833.2888 55.311806
834.31995 157.45325
835.29016 72.913574
836.515 33.0097
837.5139 257.10437
838.27783 122.000145
839.17444 25.216923
840.298 20.743927
840.9962 4.446264
842.31775 8.105096
843.14685 24.47483
844.3545 19.03444
845.2086 10.510745
846.0919 25.113556
847.42566 29.915623
848.3839 33.591934
849.30493 11.4095335
850.0061 35.148342
851.16516 21.464008
852.2649 45.10256
853.499 27.84291
854.33093 39.669132
856.82385 131.44759
857.56433 106.92505
858.5769 12.28109
860.12024 95.51853
860.9928 74.144066
861.94556 11.548444
862.55383 7.6136174
863.42566 5.79696
864.5078 3.8725436
865.57043 75.96027
866.202 350.4668
866.9453 28.986233
868.9109 1079.1204
869.6837 1418.1864
871.3721 128.8767
872.34106 27.131924
873.55896 9.125217
875.1588 17.150211
875.98804 16.367313
877.874 3594.5532
878.60034 3799.3428
879.54736 174.24283
880.35754 68.210106
881.22205 40.239784
882.5481 88.142105
883.2273 27.81783
884.27295 55.73601
885.3982 10.177979
886.48315 13.077173
887.44495 18.575132
888.3915 25.825762
889.39417 17.647388
890.2886 14.187882
891.2716 5.4706116
892.42957 4.1597137
893.994 16.784912
894.7921 35.910046
896.0951 27.40831
897.31726 49.777454
898.1835 16.610373
899.9675 9.3970175
901.0658 8.370632
902.8224 21.738964
903.61426 82.05264
904.62244 65.8782
905.6432 60.06046
906.2827 45.33534
907.2117 14.012577
909.3854 34.357384
910.2898 18.394667
911.29834 10.507111
912.30835 12.7240925
913.02356 30.401207
914.2943 45.69747
915.0034 191.12335
916.04834 28.152262
916.7278 25.130405
917.4779 23.962706
918.2097 20.62997
919.1216 15.762516
919.75085 9.797967
921.4077 473.63602
922.4706 161.16324
923.256 233.55779
923.86475 222.13593
924.5104 107.58994
925.8141 115.65787
926.6394 141.4432
927.90125 32.105038
928.82446 5.6408587
931.1217 37.76233
932.24634 21.793888
933.42554 24.957844
934.90625 147.72668
935.577 178.94193
936.48865 29.010004
937.45935 9.505629
938.3425 5.9597034
939.4828 7.2337418
940.7914 74.3763
941.44165 55.448895
942.254 93.58177
942.99036 57.350807
944.22314 36.069748
945.6311 11.598072
946.5564 22.939587
948.2185 26.102985
949.26636 43.005074
950.0499 10.799353
951.4005 17.73895
952.36597 10.334993
953.3395 82.80554
954.35974 175.74309
955.203 185.13904
956.42224 92.35808
957.28955 35.787464
958.3275 148.31798
959.26575 566.1262
960.3096 270.79053
961.3546 36.7205
963.6096 322.92435
964.69653 173.71895
965.338 312.30188
965.9458 188.19199
966.6467 34.497784
967.9647 29.192707
968.73865 8.346241
969.5906 18.243397
970.5846 46.458138
971.3323 64.65562
972.2074 41.82502
973.8247 1455.4294
974.5371 2336.978
976.2849 1352.7579
977.37646 726.9432
978.2809 170.30165
978.96704 4.2930202
979.6155 4.3555484
980.8561 138.15192
981.4901 181.27396
982.29846 122.11565
983.2864 11.349576
984.46155 24.011208
985.6565 23.254879
986.6741 16.117336
987.7733 19.071888
988.63855 2.704459
989.8722 16.642681
991.1675 37.67081
992.48267 5.589542
993.98096 47.063705
994.8495 4.6540513
996.14343 2.170401
997.5896 4.706227
998.7533 3.1808784
999.5657 47.912014
1000.39233 56.685402
1001.18787 5.052149
1002.2532 4.8633084
1003.24524 26.270264
1004.50757 16.885147
1005.4424 29.902243
1006.443 13.293049
1007.3992 23.551441
1008.3141 4.273872
1010.00354 32.93329
1011.64075 235.09334
1012.4396 51.391235
1013.84985 27.334427
1014.72485 13.909155
1015.6393 8.4747505
1016.7428 22.691086
1017.85803 51.80282
1018.6887 46.697372
1019.5957 49.809494
1020.694 277.27283
1021.4219 85.92478
1022.3596 28.111042
1023.0647 5.8257484
1023.68115 6.137063
1024.5022 23.295116
1025.4956 1.6904556
1026.2816 22.29345
1027.525 15.95351
1028.591 57.379967
1029.3538 28.482637
1030.1047 22.036694
1031.0247 15.470415
1031.8717 9.030422
1032.4843 2.8561842
1033.3926 24.359516
1034.3663 6.330086
1036.0139 42.90367
1036.6207 112.70197
1037.5825 86.12831
1038.3905 149.77277
1039.3816 45.121407
1040.2931 20.952429
1040.9031 17.896074
1043.3416 18.58411
1044.4309 46.23738
1045.4277 97.64632
1046.2882 142.84836
1047.253 64.66786
1048.2153 25.692392
1049.1729 2.4438088
1050.2019 6.688035
1051.083 11.4950905
1051.7424 1.6800879
1052.6406 26.752193
1054.2343 5.746545
1055.0273 9.822848
1055.8019 5.973595
1057.4316 57.125587
1058.4886 29.44231
1059.8352 8.083889
1060.706 16.712847
1061.5726 23.389374
1062.3999 51.061897
1063.3263 357.01248
1064.2589 236.34521
1065.3578 47.55731
1066.0286 4.8217645
1067.3625 43.349487
1068.1797 19.22077
1069.3077 15.898993
1070.1647 20.780624
1071.3145 29.518341
1072.6523 13.975636
1074.5188 21.936142
1075.863 166.79486
1076.6926 290.31973
1077.647 12.379719
1078.3254 7.8632226
1079.5684 47.919327
1080.3812 12.278079
1081.5037 25.30833
1082.572 27.27426
1083.5344 15.772651
1084.7252 21.736904
1085.7623 55.24654
1086.7856 7.3646097
1087.5222 10.2310505
1088.1505 13.014013
1088.958 16.549845
1089.5969 4.0016284
1090.4948 5.819684
1091.2736 20.666544
1093.459 175.0222
1094.4418 113.31349
1095.4983 46.83456
1096.2751 8.693192
1097.4476 14.265308
1098.3428 53.005383
1099.415 108.80113
1100.4573 72.23842
1101.2974 28.380829
1102.3541 4.444566
1103.5394 4.2066026
1104.4014 5.606974
1106.0889 6.3091497
1107.7646 15.839729
1109.9026 112.639206
1111.1832 25.192533
1112.0509 2.5337253
1115.0643 18.899502
1116.3999 246.00806
1117.3828 355.1829
1118.5001 262.564
1119.3792 71.51697
1120.372 19.508392
1121.5315 7.415395
1122.4559 5.757625
1123.5868 10.102598
1124.5364 26.124954
1125.5557 18.388947
1126.5403 8.604607
1128.2189 70.394684
1129.4335 17.059183
1130.0592 7.508691
1130.9534 21.636976
1132.5067 163.89093
1133.6438 155.9667
1134.3606 972.439
1135.3737 678.8603
1136.2943 178.17975
1137.4758 48.132298
1138.518 14.49687
1139.5532 41.98826
1140.5298 12.345771
1142.2809 41.344383
1143.0577 26.077892
1143.9171 17.147898
1144.889 13.509108
1146.2324 25.549915
1147.5212 8.989874
1148.3903 14.343642
1150.4369 661.9873
1151.4537 318.9984
1152.502 57.801624
1153.4241 216.03722
1154.3544 139.14594
1155.4779 9.947594
1156.7292 1.7280012
1158.8173 2.92973
1159.6017 61.4898
1160.4188 51.55753
1161.4277 12.723248
1163.3105 5.417992
1164.2136 6.086765
1164.9844 6.046336
1165.9541 20.38593
1166.5593 3.3470418
1167.3606 9.276661
1168.5597 39.31948
1169.6604 13.904072
1170.7134 32.74343
1171.5381 3.224752
1172.5099 27.37386
1173.6178 13.5206
1174.6484 3.2375364
1175.6145 6.7697973
1176.3092 7.832965
1176.9985 2.083645
1178.4436 14.527316
1179.7781 4.747735
1182.8331 13.507191
1184.1664 28.892345
1185.2239 4.7164164
1191.4866 6.896978
1192.346 9.244857
1195.1315 12.360573
1196.3524 7.2943926
1197.6495 11.385847
1199.2688 9.491835
1201.4287 2.5540733
1202.4198 2.0901978
1204.5719 17.799667
1205.6935 27.823397
1206.538 10.033804
1207.4602 3.5632014
1209.2415 22.83371
1210.5824 9.492019
1211.6876 7.662342
1213.487 12.086597
1214.7773 6.266999
1215.5265 9.531367
1216.5356 10.49951
1218.4504 2.3325882
1219.5266 1.7971101
1220.3229 14.387142
1222.5999 2.8826869
1223.5135 1.6850727
1224.6158 4.433773
1227.4679 4.701584
1228.2451 4.5194445
1229.2944 12.224206
1230.441 12.903162
1231.2705 10.539972
1232.2258 14.729537
1233.6273 19.808247
1234.7511 2.0490758
1236.4534 10.894021
1237.3406 8.872058
1238.2391 12.531501
1239.3583 3.3276086
1240.5466 4.871291
1241.5955 19.839441
1242.2966 3.3336015
1245.294 7.8007655
1246.9532 10.922352
1247.8417 11.964369
1248.446 5.9123936
1249.5219 14.099769
1250.3711 2.1592808
1253.6874 27.51377
1254.5251 94.570656
1255.435 67.374374
1256.5333 9.717342
1258.5134 6.11612
1259.4366 7.8390694
1260.214 4.347828
1260.9191 3.6900797
1262.4452 24.737698
1263.3595 61.78726
1264.3145 19.6058
1265.257 2.7420912
1266.4579 4.674217
1267.5138 20.79582
1268.4097 14.781168
1271.6476 1.8163375
1272.7577 5.2320952
1273.4618 5.901866
1274.9353 6.683999
1275.9089 3.9430313
1276.616 9.674513
1277.2513 3.4870887
1279.3898 67.116425
1280.4038 265.9589
1281.3982 135.87392
1282.0588 16.75124
1282.6849 24.99815
1283.3391 3.9665601
1284.359 12.299692
1286.254 5.220251
1287.6366 3.4281297
1289.4974 7.538654
1295.4386 17.955727
1297.3048 624.79297
1298.4037 400.3197
1299.4789 136.17833
1302.8195 9.516619
1303.4359 5.5394635
1304.5912 12.784849
1305.4554 5.3092136
1306.5477 2.8835392
1307.4039 3.7696815
1308.9314 4.3333006
1311.6389 1.8217789
1313.5247 82.91647
1314.5039 54.720116
1315.3146 40.130974
1316.03 3.4478009
1317.9779 6.4173536
1319.5876 5.414685
1320.3754 11.314915
1321.5752 1.9535183
1323.4934 66.41222
1324.6843 53.567665
1325.5531 14.14325
1326.5671 4.243689
1327.3683 4.1205683
1332.4952 4.92229
1333.5282 3.3628678
1336.0989 16.209854
1337.4745 51.373463
1338.5822 21.416025
1340.6788 4.4305606
1342.6777 4.3054743
1343.7885 9.359833
1344.6029 3.4863405
1345.3693 11.82712
1346.2751 11.985621
1348.6046 9.772913
1351.172 5.0571713
1352.1378 4.1067305
1354.4012 121.15046
1355.3416 117.21742
1356.299 22.705292
1357.2006 1.8295128
1360.0945 6.78316
1362.0999 4.350466
1363.4575 4.108308
1364.4033 9.316497
1365.7184 20.915937
1366.4161 28.319536
1367.7698 23.399002
1368.8494 12.698217
1373.5073 5.2800713
1374.6208 4.330869
1378.6254 35.30141
1380.4994 1.9444063
1382.4894 19.863157
1383.5504 3.9056056
1384.5283 16.751055
1385.8442 16.867275
1386.7462 15.921085
1387.598 4.6210294
1388.6869 9.7396755
1389.6329 5.343175
1390.343 1.792916
1392.5306 2.6907752
1393.48 18.632877
1394.6885 24.774622
1395.8824 26.645641
1396.916 8.966383
1399.4991 4.0568504
1401.4441 7.0149236
1402.7855 5.4175897
1403.6201 2.3293822
1404.6904 3.3957257
1408.3251 4.5715847
1409.7091 3.261779
1411.4447 48.064
1412.3481 73.62105
1413.4271 21.764687
1415.7152 2.8354053
1416.605 2.3461971
1418.598 5.8939867
1421.216 9.601404
1425.232 8.521906
1429.4308 5.4293795
1430.5961 2.1050172
1432.7687 6.2684803
1435.4524 5.084902
1437.4205 2.2313619
1438.4923 2.858055
1439.1761 2.6772196
1442.2081 2.9206464
1445.7135 3.5445154
1446.7325 16.184328
1447.629 3.7617977
1448.6708 3.8606718
1453.4556 13.12178
1454.6193 3.1554782
1455.7374 5.7721066
1459.7852 11.534541
1468.5245 13.348977
1469.5566 5.448382
1471.4141 26.629074
1472.426 12.120496
1473.1799 3.76068
1473.8379 2.66861
1475.2023 5.7373304
1480.9131 5.4284487
1482.6046 2.8640563
1485.861 13.806847
1486.9904 3.8167064
1488.6406 13.820902
1491.4211 8.405759
1492.5121 3.4980252
1494.362 8.263524
1495.9108 2.8236957
1497.533 2.3265548
1502.324 2.5937452
1508.4766 29.462212
1509.5824 46.073975
1510.6045 46.33618
1511.557 25.553919
1512.7924 5.0868406
1526.4749 237.08603
1527.4368 308.88754
1528.4366 39.907536
1532.7898 3.78164
1536.5406 4.3717637
1539.6877 5.859846
1541.6505 8.022976
1550.5939 13.95549
1551.3351 2.3167849
1552.2869 7.7408266
1562.4734 4.63005
1566.6714 14.585497
1567.4246 4.013277
1572.7369 3.7206552
1573.851 5.472069
1577.2026 9.492925
1580.4304 23.2033654035
1581.7224 9.926351
1585.3585 8.066137
1588.4203 4.170724
1593.9487 13.873677
1595.9606 2.0681512
1611.5245 2.7083611
1618.3707 4.940135
1621.6488 2.2348008
1622.674 1.7817256
1627.8579 3.806215
1639.4459 4.7361336
